%YAML 1.1
%TAG !u! tag:unity3d.com,2011:
--- !u!1 &5428892341795658677
GameObject:
  m_ObjectHideFlags: 0
  m_CorrespondingSourceObject: {fileID: 0}
  m_PrefabInstance: {fileID: 0}
  m_PrefabAsset: {fileID: 0}
  serializedVersion: 6
  m_Component:
  - component: {fileID: 7399379052027220934}
  - component: {fileID: 2543536091844583286}
  m_Layer: 0
  m_Name: L3W4
  m_TagString: Untagged
  m_Icon: {fileID: 0}
  m_NavMeshLayer: 0
  m_StaticEditorFlags: 0
  m_IsActive: 1
--- !u!4 &7399379052027220934
Transform:
  m_ObjectHideFlags: 0
  m_CorrespondingSourceObject: {fileID: 0}
  m_PrefabInstance: {fileID: 0}
  m_PrefabAsset: {fileID: 0}
  m_GameObject: {fileID: 5428892341795658677}
  m_LocalRotation: {x: 0, y: 0, z: 0, w: 1}
  m_LocalPosition: {x: -2.3539677, y: -1.2546107, z: -11.543586}
  m_LocalScale: {x: 1, y: 1, z: 1}
  m_Children:
  - {fileID: 6979699176112203928}
  m_Father: {fileID: 0}
  m_RootOrder: 0
  m_LocalEulerAnglesHint: {x: 0, y: 0, z: 0}
--- !u!114 &2543536091844583286
MonoBehaviour:
  m_ObjectHideFlags: 0
  m_CorrespondingSourceObject: {fileID: 0}
  m_PrefabInstance: {fileID: 0}
  m_PrefabAsset: {fileID: 0}
  m_GameObject: {fileID: 5428892341795658677}
  m_Enabled: 1
  m_EditorHideFlags: 0
  m_Script: {fileID: 11500000, guid: cbab7a15fdb7b5c49a16b094b4097e85, type: 3}
  m_Name: 
  m_EditorClassIdentifier: 
  nameWave: Wave4
  spawnRate: 0.5
  objectType: 4
  move:
  - {fileID: 5421713706003062171, guid: ac7d12f2df001534980d93893810df2b, type: 3}
  pointWave: {fileID: 368578809052311036, guid: 9a26caf38de24e84abb78fc875728198, type: 3}
  numberEnemy: 10
  posSpawner: {fileID: 6979699176112203928}
  HpEnemyWave: 12
--- !u!1 &8868888268211058408
GameObject:
  m_ObjectHideFlags: 0
  m_CorrespondingSourceObject: {fileID: 0}
  m_PrefabInstance: {fileID: 0}
  m_PrefabAsset: {fileID: 0}
  serializedVersion: 6
  m_Component:
  - component: {fileID: 6979699176112203928}
  m_Layer: 0
  m_Name: PosSpawner
  m_TagString: Untagged
  m_Icon: {fileID: 0}
  m_NavMeshLayer: 0
  m_StaticEditorFlags: 0
  m_IsActive: 1
--- !u!4 &6979699176112203928
Transform:
  m_ObjectHideFlags: 0
  m_CorrespondingSourceObject: {fileID: 0}
  m_PrefabInstance: {fileID: 0}
  m_PrefabAsset: {fileID: 0}
  m_GameObject: {fileID: 8868888268211058408}
  m_LocalRotation: {x: 0, y: 0, z: 0, w: 1}
  m_LocalPosition: {x: 3.57, y: 8.77, z: 0}
  m_LocalScale: {x: 1, y: 1, z: 1}
  m_Children: []
  m_Father: {fileID: 7399379052027220934}
  m_RootOrder: 0
  m_LocalEulerAnglesHint: {x: 0, y: 0, z: 0}
