%YAML 1.1
%TAG !u! tag:unity3d.com,2011:
--- !u!74 &7400000
AnimationClip:
  m_ObjectHideFlags: 0
  m_CorrespondingSourceObject: {fileID: 0}
  m_PrefabInstance: {fileID: 0}
  m_PrefabAsset: {fileID: 0}
  m_Name: Player
  serializedVersion: 6
  m_Legacy: 0
  m_Compressed: 0
  m_UseHighQualityCurve: 1
  m_RotationCurves: []
  m_CompressedRotationCurves: []
  m_EulerCurves: []
  m_PositionCurves: []
  m_ScaleCurves: []
  m_FloatCurves: []
  m_PPtrCurves:
  - curve:
    - time: 0
      value: {fileID: 21300000, guid: c510583972dd8324a8fd3cf3b0e07da2, type: 3}
    - time: 0.05
      value: {fileID: 21300000, guid: 7072bf6031dc9d742a68f1aed493b9af, type: 3}
    - time: 0.11666667
      value: {fileID: 21300000, guid: 93917eb8002555f468588ee994ee3a2d, type: 3}
    - time: 0.18333334
      value: {fileID: 21300000, guid: ff9d2634f23a3774e9d28806a4dcc4c3, type: 3}
    - time: 0.25
      value: {fileID: 21300000, guid: 796b6830cab4c8140ba680024e93f55d, type: 3}
    - time: 0.3
      value: {fileID: 21300000, guid: ea44d3ddbd4eb44479cfdeed762861af, type: 3}
    - time: 0.35
      value: {fileID: 21300000, guid: 6996211fc3724a943ae254b39b9de490, type: 3}
    - time: 0.4
      value: {fileID: 21300000, guid: bc883f1638b25724782794ce6512b4ed, type: 3}
    attribute: m_Sprite
    path: 
    classID: 212
    script: {fileID: 0}
  m_SampleRate: 60
  m_WrapMode: 0
  m_Bounds:
    m_Center: {x: 0, y: 0, z: 0}
    m_Extent: {x: 0, y: 0, z: 0}
  m_ClipBindingConstant:
    genericBindings:
    - serializedVersion: 2
      path: 0
      attribute: 0
      script: {fileID: 0}
      typeID: 212
      customType: 23
      isPPtrCurve: 1
    pptrCurveMapping:
    - {fileID: 21300000, guid: c510583972dd8324a8fd3cf3b0e07da2, type: 3}
    - {fileID: 21300000, guid: 7072bf6031dc9d742a68f1aed493b9af, type: 3}
    - {fileID: 21300000, guid: 93917eb8002555f468588ee994ee3a2d, type: 3}
    - {fileID: 21300000, guid: ff9d2634f23a3774e9d28806a4dcc4c3, type: 3}
    - {fileID: 21300000, guid: 796b6830cab4c8140ba680024e93f55d, type: 3}
    - {fileID: 21300000, guid: ea44d3ddbd4eb44479cfdeed762861af, type: 3}
    - {fileID: 21300000, guid: 6996211fc3724a943ae254b39b9de490, type: 3}
    - {fileID: 21300000, guid: bc883f1638b25724782794ce6512b4ed, type: 3}
  m_AnimationClipSettings:
    serializedVersion: 2
    m_AdditiveReferencePoseClip: {fileID: 0}
    m_AdditiveReferencePoseTime: 0
    m_StartTime: 0
    m_StopTime: 0.4166667
    m_OrientationOffsetY: 0
    m_Level: 0
    m_CycleOffset: 0
    m_HasAdditiveReferencePose: 0
    m_LoopTime: 1
    m_LoopBlend: 0
    m_LoopBlendOrientation: 0
    m_LoopBlendPositionY: 0
    m_LoopBlendPositionXZ: 0
    m_KeepOriginalOrientation: 0
    m_KeepOriginalPositionY: 1
    m_KeepOriginalPositionXZ: 0
    m_HeightFromFeet: 0
    m_Mirror: 0
  m_EditorCurves: []
  m_EulerEditorCurves: []
  m_HasGenericRootTransform: 0
  m_HasMotionFloatCurves: 0
  m_Events: []
